{
  "total_results": 64,
  "pages_total": 7,
  "next_page_url": "/more/?term=%28%28%222012%2F01%2F01%22%5BDate+-+Publication%5D+%3A+%222020%2F12%2F31%22%5BDate+-+Publication%5D%29%29+AND+%28%22older%22%2B%22alzheimer%22%2B%22factor+analysis%22%29&sort=&page=2",
  "chunk_ids": [
    "32191630",
    "30863265",
    "31789566",
    "29182443",
    "22777078",
    "30674592",
    "23388170",
    "29254090",
    "29356568",
    "31973776"
  ],
  "results": [
    {
      "pmid": "32191630",
      "title": "The neurocognitive and BDNF changes of multicomponent exercise for community-dwelling older adults with mild cognitive impairment or dementia: a systematic review and meta-analysis.",
      "url": "https://pubmed.ncbi.nlm.nih.gov/32191630/",
      "authors": "Wang X, Wang H, Ye Z, Ding G, Li F, Ma J, Hua W.",
      "journal_citation": "Aging (Albany NY). 2020 Mar 19;12(6):4907-4917. doi: 10.18632/aging.102918. Epub 2020 Mar 19.",
      "journal_citation_short": "Aging (Albany NY). 2020.",
      "journal_citation_full": "Aging (Albany NY). 2020 Mar 19;12(6):4907-4917. doi: 10.18632/aging.102918. Epub 2020 Mar 19.",
      "publication_year": 2020,
      "publication_date_text": "2020 Mar 19",
      "snippet": "Our goal was to examine whether multicomponent exercise performed by older adults with mild cognitive impairment or dementia as group-based exercise in community have beneficial effects on cognition and brain-derived neurotrophic factor. ...In conclusion, this meta-analysi …"
    },
    {
      "pmid": "30863265",
      "title": "Validation of the Korean-Everyday Cognition (K-ECog).",
      "url": "https://pubmed.ncbi.nlm.nih.gov/30863265/",
      "authors": "Song M, Lee SH, Jahng S, Kim SY, Kang Y.",
      "journal_citation": "J Korean Med Sci. 2019 Feb 27;34(9):e67. doi: 10.3346/jkms.2019.34.e67. eCollection 2019 Mar 11.",
      "journal_citation_short": "J Korean Med Sci. 2019.",
      "journal_citation_full": "J Korean Med Sci. 2019 Feb 27;34(9):e67. doi: 10.3346/jkms.2019.34.e67. eCollection 2019 Mar 11.",
      "publication_year": 2019,
      "publication_date_text": "2019 Feb 27",
      "snippet": "METHODS: The participants were 268 cognitively normal older adults (NA), 151 amnestic mild cognitive impairment (aMCI), and 77 dementia of the Alzheimer's type (DAT). ...K-ECog was significantly correlated with K-IADL (0.66), K-MMSE (-0.38), and K-MoCA (-0.26). Conf …"
    },
    {
      "pmid": "31789566",
      "title": "Linear and nonlinear relationships between cognitive subdomains of ability discrepancy and Alzheimer's disease biomarkers.",
      "url": "https://pubmed.ncbi.nlm.nih.gov/31789566/",
      "authors": "McDonough IM, Popp TE.",
      "journal_citation": "Neuropsychology. 2020 Feb;34(2):211-226. doi: 10.1037/neu0000606. Epub 2019 Dec 2.",
      "journal_citation_short": "Neuropsychology. 2020.",
      "journal_citation_full": "Neuropsychology. 2020 Feb;34(2):211-226. doi: 10.1037/neu0000606. Epub 2019 Dec 2.",
      "publication_year": 2020,
      "publication_date_text": "2020 Feb",
      "snippet": "However, recent proposals suggest that a large discrepancy between these two abilities, defined as crystallized performance minus fluid performance, indicates heightened risk for Alzheimer's disease (AD). METHOD: In 266 cognitively healthy older adults, the present …"
    },
    {
      "pmid": "29182443",
      "title": "Exploring the Factor Structure of Financial Capacity in Cognitively Normal and Impaired Older Adults.",
      "url": "https://pubmed.ncbi.nlm.nih.gov/29182443/",
      "authors": "Gerstenecker A, Triebel K, Eakin A, Martin R, Marson D.",
      "journal_citation": "Clin Gerontol. 2018 Jan-Feb;41(1):33-41. doi: 10.1080/07317115.2017.1387211. Epub 2017 Nov 28.",
      "journal_citation_short": "Clin Gerontol. 2018.",
      "journal_citation_full": "Clin Gerontol. 2018 Jan-Feb;41(1):33-41. doi: 10.1080/07317115.2017.1387211. Epub 2017 Nov 28.",
      "publication_year": 2018,
      "publication_date_text": "2018 Jan-Feb",
      "snippet": "METHODS: The study sample was composed of 440 older adults who represented the cognitive spectrum from normal cognitive aging to mild cognitive impairment (MCI) to mild dementia: 179 healthy older adults, 149 participants with MCI, and 112 participants with mild …"
    },
    {
      "pmid": "22777078",
      "title": "Confirmatory factor analysis of the ADNI Neuropsychological Battery.",
      "url": "https://pubmed.ncbi.nlm.nih.gov/22777078/",
      "authors": "Park LQ, Gross AL, McLaren DG, Pa J, Johnson JK, Mitchell M, Manly JJ; Alzheimer’s Disease Neuroimaging Initiative.",
      "journal_citation": "Brain Imaging Behav. 2012 Dec;6(4):528-39. doi: 10.1007/s11682-012-9190-3.",
      "journal_citation_short": "Brain Imaging Behav. 2012.",
      "journal_citation_full": "Brain Imaging Behav. 2012 Dec;6(4):528-39. doi: 10.1007/s11682-012-9190-3.",
      "publication_year": 2012,
      "publication_date_text": "2012 Dec",
      "snippet": "Confirmatory factor analysis (CFA) of 23 variables from 10 neuropsychological tests resulted in five factors (memory, language, visuospatial functioning, attention, and executive function/processing speed) that were invariant across levels of cognitive impairment. T …"
    },
    {
      "pmid": "30674592",
      "title": "Type 2 diabetes mellitus, brain atrophy, and cognitive decline.",
      "url": "https://pubmed.ncbi.nlm.nih.gov/30674592/",
      "authors": "Moran C, Beare R, Wang W, Callisaya M, Srikanth V; Alzheimer's Disease Neuroimaging Initiative (ADNI).",
      "journal_citation": "Neurology. 2019 Feb 19;92(8):e823-e830. doi: 10.1212/WNL.0000000000006955. Epub 2019 Jan 23.",
      "journal_citation_short": "Neurology. 2019.",
      "journal_citation_full": "Neurology. 2019 Feb 19;92(8):e823-e830. doi: 10.1212/WNL.0000000000006955. Epub 2019 Jan 23.",
      "publication_year": 2019,
      "publication_date_text": "2019 Feb 19",
      "snippet": "OBJECTIVE: To study longitudinal relationships between type 2 diabetes mellitus (T2DM), cortical thickness, and cognitive function in older people with normal cognition, mild cognitive impairment, and Alzheimer disease (AD). METHODS: The sample was derived from the …"
    },
    {
      "pmid": "23388170",
      "title": "Metabolic syndrome and cognitive decline in early Alzheimer's disease and healthy older adults.",
      "url": "https://pubmed.ncbi.nlm.nih.gov/23388170/",
      "authors": "Watts AS, Loskutova N, Burns JM, Johnson DK.",
      "journal_citation": "J Alzheimers Dis. 2013;35(2):253-65. doi: 10.3233/JAD-121168.",
      "journal_citation_short": "J Alzheimers Dis. 2013.",
      "journal_citation_full": "J Alzheimers Dis. 2013;35(2):253-65. doi: 10.3233/JAD-121168.",
      "publication_year": 2013,
      "publication_date_text": "2013",
      "snippet": "We assessed the effect of MetS on cognitive performance and decline over two years in 75 cases of early Alzheimer's disease (AD) and 73 healthy older adult controls in the Brain Aging Project. ...Our findings suggest that MetS does not have the same association with …"
    },
    {
      "pmid": "29254090",
      "title": "Executive and Language Subjective Cognitive Decline Complaints Discriminate Preclinical Alzheimer's Disease from Normal Aging.",
      "url": "https://pubmed.ncbi.nlm.nih.gov/29254090/",
      "authors": "Valech N, Tort-Merino A, Coll-Padrós N, Olives J, León M, Rami L, Molinuevo JL.",
      "journal_citation": "J Alzheimers Dis. 2018;61(2):689-703. doi: 10.3233/JAD-170627.",
      "journal_citation_short": "J Alzheimers Dis. 2018.",
      "journal_citation_full": "J Alzheimers Dis. 2018;61(2):689-703. doi: 10.3233/JAD-170627.",
      "publication_year": 2018,
      "publication_date_text": "2018",
      "snippet": "METHODS: 68 cognitively normal older adults were classified as controls (n = 52) or preAD (n = 16) according to amyloid-beta (Abeta) levels. An exploratory factor analysis and item analysis of the SCD-Q were performed. Informant reports of the SCD-Q were used …"
    },
    {
      "pmid": "29356568",
      "title": "Usability study and pilot validation of a computer-based emotion recognition test for older adults with Alzheimer's disease and amnestic mild cognitive impairment.",
      "url": "https://pubmed.ncbi.nlm.nih.gov/29356568/",
      "authors": "García-Casal JA, Martínez-Abad F, Cid-Bartolomé T, Smith SJ, Llano-Ordóñez K, Perea-Bartolomé MV, Goñi-Imizcoz M, Soto-Pérez F, Franco-Martín M.",
      "journal_citation": "Aging Ment Health. 2019 Mar;23(3):365-375. doi: 10.1080/13607863.2017.1423033. Epub 2018 Jan 22.",
      "journal_citation_short": "Aging Ment Health. 2019.",
      "journal_citation_full": "Aging Ment Health. 2019 Mar;23(3):365-375. doi: 10.1080/13607863.2017.1423033. Epub 2018 Jan 22.",
      "publication_year": 2019,
      "publication_date_text": "2019 Mar",
      "snippet": "Test-retest reliability correlations were significant and robust (r = 0.840, p < 0.001). Exploratory factor analysis supported a seven-factor model of the emotions assessed (neutral expression, happiness, surprise, disgust, sadness, anger and fear). ...CONCLUSION …"
    },
    {
      "pmid": "31973776",
      "title": "Differential Item Functioning of the Everyday Cognition (ECog) Scales in Relation to Racial/Ethnic Groups.",
      "url": "https://pubmed.ncbi.nlm.nih.gov/31973776/",
      "authors": "Filshtein T, Chan M, Mungas D, Whitmer R, Fletcher E, DeCarli C, Farias S.",
      "journal_citation": "J Int Neuropsychol Soc. 2020 May;26(5):515-526. doi: 10.1017/S1355617719001437. Epub 2020 Jan 24.",
      "journal_citation_short": "J Int Neuropsychol Soc. 2020.",
      "journal_citation_full": "J Int Neuropsychol Soc. 2020 May;26(5):515-526. doi: 10.1017/S1355617719001437. Epub 2020 Jan 24.",
      "publication_year": 2020,
      "publication_date_text": "2020 May",
      "snippet": "METHODS: Participants included 1177 NHW, 243 Black, and 216 Hispanic older adults from the UC Davis Alzheimer's Disease Center Cohort who had an ECog. Differential item functioning (DIF) for each ECog domain was evaluated separately for Black and Hispanic participan …"
    }
  ]
}